[
  {
    "element-6066-11e4-a52e-4f735466cecf": "75877591-022a-4b45-bd0a-04f7d13c918b"
  },
  {
    "element-6066-11e4-a52e-4f735466cecf": "ed54c9a8-efc0-4f64-a5f0-89ff20429249"
  },
  {
    "element-6066-11e4-a52e-4f735466cecf": "5f3642a1-05d4-424a-86ae-ea181716f093"
  },
  {
    "element-6066-11e4-a52e-4f735466cecf": "690b61c8-1dbf-409a-9480-dfdf7cfa6593"
  },
  {
    "element-6066-11e4-a52e-4f735466cecf": "baa1a190-c411-47c1-b737-5563ae088450"
  },
  {
    "element-6066-11e4-a52e-4f735466cecf": "460a6b64-7208-427e-8a35-914d1ce44345"
  },
  {
    "element-6066-11e4-a52e-4f735466cecf": "1e19f85c-30a0-4d67-8abf-b5be1d636767"
  },
  {
    "element-6066-11e4-a52e-4f735466cecf": "51bbdfb3-9b6b-402c-a36c-b64e845256ef"
  },
  {
    "element-6066-11e4-a52e-4f735466cecf": "8d33144e-103c-426f-910f-5997e5f50753"
  },
  {
    "element-6066-11e4-a52e-4f735466cecf": "b60252f0-8bac-4bf0-af1d-625e9604be63"
  },
  {
    "element-6066-11e4-a52e-4f735466cecf": "30e94c69-64d6-4edc-80e3-f05ec8c59d69"
  },
  {
    "element-6066-11e4-a52e-4f735466cecf": "6391138f-063b-4b47-9b95-18f833f7f046"
  }
]