[
  {
    "element-6066-11e4-a52e-4f735466cecf": "e3a68d01-e648-4d34-9ba3-823dadad080b"
  },
  {
    "element-6066-11e4-a52e-4f735466cecf": "99f56e91-45b2-445f-ad27-3caf8c0447cc"
  },
  {
    "element-6066-11e4-a52e-4f735466cecf": "f27297c1-72b8-4e2c-9fe4-10f0329f4bc8"
  },
  {
    "element-6066-11e4-a52e-4f735466cecf": "7e9b5675-603e-41a4-8850-3f0d2d6d54f6"
  },
  {
    "element-6066-11e4-a52e-4f735466cecf": "ef9faa08-f166-47fe-beea-f6858073a627"
  },
  {
    "element-6066-11e4-a52e-4f735466cecf": "47953352-18f0-4aaf-85a5-0d2a3e0ffbec"
  },
  {
    "element-6066-11e4-a52e-4f735466cecf": "248475c4-6008-4482-b9d2-740ce07205e6"
  },
  {
    "element-6066-11e4-a52e-4f735466cecf": "9ac90c4e-62a6-4250-8183-eb871ff48395"
  },
  {
    "element-6066-11e4-a52e-4f735466cecf": "e254716c-92f5-4a65-a550-2fbcf638b268"
  },
  {
    "element-6066-11e4-a52e-4f735466cecf": "864b10a9-09f3-44a0-9ed7-ca3c9428a050"
  },
  {
    "element-6066-11e4-a52e-4f735466cecf": "280001b0-4ddd-4e5b-a565-b4f8498d22e2"
  }
]