[
  {
    "element-6066-11e4-a52e-4f735466cecf": "3407ff3a-cb42-4090-b3c4-07049d87e1ea"
  },
  {
    "element-6066-11e4-a52e-4f735466cecf": "d65fa565-d15c-4da8-9279-a5663e858049"
  },
  {
    "element-6066-11e4-a52e-4f735466cecf": "db634a56-6468-4703-840e-a7583ee071fa"
  },
  {
    "element-6066-11e4-a52e-4f735466cecf": "775fa37b-f3fa-487b-a723-0173ca58d0b7"
  },
  {
    "element-6066-11e4-a52e-4f735466cecf": "e0a65ae8-53d2-435f-babc-653b0aacaf99"
  },
  {
    "element-6066-11e4-a52e-4f735466cecf": "24ceded8-7ab0-4336-9fc3-21c52c0ed597"
  },
  {
    "element-6066-11e4-a52e-4f735466cecf": "a23a7ee7-f6fa-402f-8c83-20ab922ec9a7"
  },
  {
    "element-6066-11e4-a52e-4f735466cecf": "8e09b5e7-7c5a-4edb-91a0-8f306879a5cf"
  },
  {
    "element-6066-11e4-a52e-4f735466cecf": "720a65d9-0640-49f9-b39c-f0a989235592"
  },
  {
    "element-6066-11e4-a52e-4f735466cecf": "775e4f7b-3f63-4196-bb99-be9f5d26de27"
  },
  {
    "element-6066-11e4-a52e-4f735466cecf": "551ae091-9a43-4691-a261-325aca979bb6"
  }
]