[
  {
    "element-6066-11e4-a52e-4f735466cecf": "fbafaa6e-1800-4e61-b853-98f482cb54fe"
  },
  {
    "element-6066-11e4-a52e-4f735466cecf": "3bfae9d6-6eb1-4d04-a440-1cb69df5f6af"
  },
  {
    "element-6066-11e4-a52e-4f735466cecf": "70258d9c-2850-4cd0-bd89-37a524c9bf4e"
  },
  {
    "element-6066-11e4-a52e-4f735466cecf": "e4ad8679-8d5b-486d-9bff-f844a127e0f6"
  },
  {
    "element-6066-11e4-a52e-4f735466cecf": "1fc37b46-b84b-415b-9099-f89d685d20ac"
  },
  {
    "element-6066-11e4-a52e-4f735466cecf": "e2b723ff-f774-4e0c-ad38-08365acbd3a9"
  },
  {
    "element-6066-11e4-a52e-4f735466cecf": "0b539e72-a769-40e8-9e3c-456c10d82624"
  },
  {
    "element-6066-11e4-a52e-4f735466cecf": "468b1f66-aaef-4ed9-82f8-fd47abb7cc16"
  },
  {
    "element-6066-11e4-a52e-4f735466cecf": "44bce194-eaa4-4567-bacf-0dcb8e159f8f"
  },
  {
    "element-6066-11e4-a52e-4f735466cecf": "6f60ec4f-c905-4f0b-b2fb-3245b7814186"
  },
  {
    "element-6066-11e4-a52e-4f735466cecf": "21539f05-8697-48e1-b17a-274d7c78ff6e"
  }
]