[
  {
    "element-6066-11e4-a52e-4f735466cecf": "d4052dbb-b405-4fdf-89dc-39b61fefa3e5"
  },
  {
    "element-6066-11e4-a52e-4f735466cecf": "ee3a112d-e4a3-4ac5-9ce0-7e8ca36c9517"
  },
  {
    "element-6066-11e4-a52e-4f735466cecf": "52dcb981-6f98-44f1-b620-f088293252cf"
  },
  {
    "element-6066-11e4-a52e-4f735466cecf": "1f8ac4ce-ae34-4748-85a0-a6358f10ed5f"
  },
  {
    "element-6066-11e4-a52e-4f735466cecf": "2dd3575d-484d-4958-985e-41e0a300fdf1"
  },
  {
    "element-6066-11e4-a52e-4f735466cecf": "bfc617f4-4b52-497d-bb8d-100bea9448d6"
  },
  {
    "element-6066-11e4-a52e-4f735466cecf": "a9da805e-9dd4-42d7-b449-ebb9b279c637"
  },
  {
    "element-6066-11e4-a52e-4f735466cecf": "be26458d-1af7-473b-8351-1b03db92f21d"
  },
  {
    "element-6066-11e4-a52e-4f735466cecf": "4b7cd586-e77a-493e-a7dc-380cc12c0168"
  },
  {
    "element-6066-11e4-a52e-4f735466cecf": "a5abf769-00ef-448a-868a-50990b9b964f"
  },
  {
    "element-6066-11e4-a52e-4f735466cecf": "269e1c2e-a19e-4da9-9460-b1b957df32fe"
  },
  {
    "element-6066-11e4-a52e-4f735466cecf": "c63d6f5e-2da5-4b17-a285-bd96f6baa009"
  },
  {
    "element-6066-11e4-a52e-4f735466cecf": "08efd792-db9a-42c8-92d7-898bfce26bc2"
  },
  {
    "element-6066-11e4-a52e-4f735466cecf": "deea904c-6330-48c2-9c74-b2531ca5904f"
  },
  {
    "element-6066-11e4-a52e-4f735466cecf": "7f01cfca-c819-454d-9d54-888d4b8f77c9"
  },
  {
    "element-6066-11e4-a52e-4f735466cecf": "93f8b7d0-9612-42bc-a2d2-6d8688d895c1"
  },
  {
    "element-6066-11e4-a52e-4f735466cecf": "9b942fd8-1959-43c1-9c6e-922a10cdb53d"
  },
  {
    "element-6066-11e4-a52e-4f735466cecf": "902a80ea-5733-4811-b7c5-f140cee8d242"
  },
  {
    "element-6066-11e4-a52e-4f735466cecf": "c81ee38d-032d-4c95-8140-5918b703d931"
  },
  {
    "element-6066-11e4-a52e-4f735466cecf": "f552990d-07c3-4b11-9d54-6580c2599bc8"
  }
]