[
  {
    "element-6066-11e4-a52e-4f735466cecf": "d3bbcf69-4d33-4697-9e62-c6bb12cf57e9"
  },
  {
    "element-6066-11e4-a52e-4f735466cecf": "6018cab7-f236-48af-81ae-5c34e7237c0a"
  },
  {
    "element-6066-11e4-a52e-4f735466cecf": "f56a55bc-af55-4440-b86f-bb2c5d1fada4"
  },
  {
    "element-6066-11e4-a52e-4f735466cecf": "cba47353-16c2-4438-9463-ca69dba1a825"
  },
  {
    "element-6066-11e4-a52e-4f735466cecf": "e715fc40-c9d0-44dc-a901-ba3fff9471a9"
  },
  {
    "element-6066-11e4-a52e-4f735466cecf": "cf839787-cb49-4b14-9ffc-895451ef0e7a"
  },
  {
    "element-6066-11e4-a52e-4f735466cecf": "b07ff41d-c7b5-4f8e-9ee3-ea4189405b4c"
  },
  {
    "element-6066-11e4-a52e-4f735466cecf": "a94d2343-3387-4960-a43e-3652d77f19eb"
  },
  {
    "element-6066-11e4-a52e-4f735466cecf": "17ec625a-5ad9-4d60-83ba-1cf16cf1b178"
  },
  {
    "element-6066-11e4-a52e-4f735466cecf": "0abb39dd-241d-419b-a389-8a503580d272"
  },
  {
    "element-6066-11e4-a52e-4f735466cecf": "02b66cdd-58bd-4b9f-9ceb-b6b129ed45c8"
  },
  {
    "element-6066-11e4-a52e-4f735466cecf": "7dbdccd1-128e-4f5f-8b28-417187e50e99"
  },
  {
    "element-6066-11e4-a52e-4f735466cecf": "b39385cd-7828-4e65-ac5f-773439590d70"
  },
  {
    "element-6066-11e4-a52e-4f735466cecf": "f360a6b3-92b4-47a9-a57c-a7ab5aef34dd"
  },
  {
    "element-6066-11e4-a52e-4f735466cecf": "447dd61e-90a9-4c59-973c-0d694094e0a5"
  },
  {
    "element-6066-11e4-a52e-4f735466cecf": "cca86fdb-41e9-4993-acb5-5a0340cb5baa"
  },
  {
    "element-6066-11e4-a52e-4f735466cecf": "0ab188c3-4c9b-464c-85a2-ec182a09a206"
  },
  {
    "element-6066-11e4-a52e-4f735466cecf": "a27112df-f21a-48ef-b363-92985d8d7d0e"
  },
  {
    "element-6066-11e4-a52e-4f735466cecf": "4780f2f0-01a0-44d2-a233-7e68bfc75876"
  },
  {
    "element-6066-11e4-a52e-4f735466cecf": "caf1eff6-8c8c-4068-86a1-f0edd6bea119"
  },
  {
    "element-6066-11e4-a52e-4f735466cecf": "0433386c-4639-4b91-b067-0595d374b83f"
  },
  {
    "element-6066-11e4-a52e-4f735466cecf": "d022194c-641b-4737-9c2f-5a5a9e83a7f7"
  }
]