[
  {
    "element-6066-11e4-a52e-4f735466cecf": "5dd9a93f-c617-472e-adc0-81b990e6c583"
  },
  {
    "element-6066-11e4-a52e-4f735466cecf": "e91230e3-322c-49e1-b7d5-adebfe6315d4"
  },
  {
    "element-6066-11e4-a52e-4f735466cecf": "443a034a-317d-4083-bd52-5f043091f070"
  },
  {
    "element-6066-11e4-a52e-4f735466cecf": "74090c7f-4155-4871-9a70-785222991de8"
  },
  {
    "element-6066-11e4-a52e-4f735466cecf": "064c9bc9-612b-463b-b77b-0c385391f915"
  },
  {
    "element-6066-11e4-a52e-4f735466cecf": "033d6fca-21c6-4599-9e4d-fd7f01a71f2b"
  },
  {
    "element-6066-11e4-a52e-4f735466cecf": "2b285321-75d8-4a30-9d7a-1999d62902a6"
  },
  {
    "element-6066-11e4-a52e-4f735466cecf": "153bb4b5-7152-4345-aa26-55fb6ad824b0"
  },
  {
    "element-6066-11e4-a52e-4f735466cecf": "0b28586b-44e1-4e96-b7f3-91d840cee772"
  },
  {
    "element-6066-11e4-a52e-4f735466cecf": "43f5e763-87a0-4372-9ed9-be96ffa813dd"
  },
  {
    "element-6066-11e4-a52e-4f735466cecf": "1921389d-14a1-4cfe-8249-9b8470af1a34"
  },
  {
    "element-6066-11e4-a52e-4f735466cecf": "add8667e-d5b4-4929-a882-fbe186e6ab91"
  },
  {
    "element-6066-11e4-a52e-4f735466cecf": "b1abf682-3370-47de-a418-172ce2736abe"
  },
  {
    "element-6066-11e4-a52e-4f735466cecf": "16d4d20b-ad99-4687-8e80-9830457b8e32"
  },
  {
    "element-6066-11e4-a52e-4f735466cecf": "49b9b188-3204-43fb-b49e-535e0bb87dd1"
  },
  {
    "element-6066-11e4-a52e-4f735466cecf": "22ee5959-023a-4156-97fe-aaf5518f38ca"
  },
  {
    "element-6066-11e4-a52e-4f735466cecf": "27b2bddf-47ba-4ed2-b36b-eeb4e24ffee8"
  },
  {
    "element-6066-11e4-a52e-4f735466cecf": "8bfbadc3-b424-4488-b962-e046051b388f"
  },
  {
    "element-6066-11e4-a52e-4f735466cecf": "59efdb6d-a34b-4b36-b741-eae64123cd9b"
  },
  {
    "element-6066-11e4-a52e-4f735466cecf": "2d0ec66a-3d61-42f8-bcc0-94c18e5dd297"
  }
]