{
  "error": "no such element",
  "message": "no such element: Unable to locate element: {\"method\":\"css selector\",\"selector\":\"a[href=\"https://www.webloftdesigns.com/\"]\"}\n  (Session info: chrome=104.0.5112.81)",
  "stacktrace": "Backtrace:\n\tOrdinal0 [0x009E6463+2188387]\n\tOrdinal0 [0x0097E461+1762401]\n\tOrdinal0 [0x00893D78+802168]\n\tOrdinal0 [0x008C1880+989312]\n\tOrdinal0 [0x008C1B1B+989979]\n\tOrdinal0 [0x008EE912+1173778]\n\tOrdinal0 [0x008DC824+1099812]\n\tOrdinal0 [0x008ECC22+1166370]\n\tOrdinal0 [0x008DC5F6+1099254]\n\tOrdinal0 [0x008B6BE0+945120]\n\tOrdinal0 [0x008B7AD6+948950]\n\tGetHandleVerifier [0x00C871F2+2712546]\n\tGetHandleVerifier [0x00C7886D+2652765]\n\tGetHandleVerifier [0x00A7002A+520730]\n\tGetHandleVerifier [0x00A6EE06+516086]\n\tOrdinal0 [0x0098468B+1787531]\n\tOrdinal0 [0x00988E88+1805960]\n\tOrdinal0 [0x00988F75+1806197]\n\tOrdinal0 [0x00991DF1+1842673]\n\tBaseThreadInitThunk [0x76CAFA29+25]\n\tRtlGetAppContainerNamedObjectPath [0x773E7A9E+286]\n\tRtlGetAppContainerNamedObjectPath [0x773E7A6E+238]\n"
}