[
  {
    "element-6066-11e4-a52e-4f735466cecf": "07485204-381c-4dcf-a279-27e8c7c32860"
  },
  {
    "element-6066-11e4-a52e-4f735466cecf": "cc58c7ed-6105-4c00-af7f-15469da67113"
  },
  {
    "element-6066-11e4-a52e-4f735466cecf": "9bf0bbcc-8541-482f-b446-f58aad71e0ab"
  },
  {
    "element-6066-11e4-a52e-4f735466cecf": "48210ee5-a711-4829-95b2-3504b86fc1a1"
  },
  {
    "element-6066-11e4-a52e-4f735466cecf": "dce79fcb-f533-414f-b644-020bee27fa7b"
  },
  {
    "element-6066-11e4-a52e-4f735466cecf": "bee08e6d-22fd-4ab3-b705-e52eafac8225"
  },
  {
    "element-6066-11e4-a52e-4f735466cecf": "abad7fa2-ebda-491d-8144-9f141829a3c7"
  },
  {
    "element-6066-11e4-a52e-4f735466cecf": "e2adfd58-cced-4499-a25d-bf152ffde94c"
  },
  {
    "element-6066-11e4-a52e-4f735466cecf": "1193aec6-e751-457f-a6df-3569c8de3cfb"
  },
  {
    "element-6066-11e4-a52e-4f735466cecf": "834bf776-7d7a-4e00-892f-f1f3eeaec4eb"
  }
]