[
  {
    "element-6066-11e4-a52e-4f735466cecf": "221bf107-a51f-43ed-bfd6-cdd1aeab93ba"
  },
  {
    "element-6066-11e4-a52e-4f735466cecf": "4b4acca2-a604-42cd-b9a7-fa7adb41af9f"
  },
  {
    "element-6066-11e4-a52e-4f735466cecf": "65e97d89-3162-4381-8b5e-af2b9f55088c"
  },
  {
    "element-6066-11e4-a52e-4f735466cecf": "40c94287-20b0-4fd1-bd77-dc13ffe39c36"
  },
  {
    "element-6066-11e4-a52e-4f735466cecf": "9ad1096c-b4bf-40b1-92f7-603c174576fc"
  },
  {
    "element-6066-11e4-a52e-4f735466cecf": "ea0cf5e4-89cc-4897-ba01-54e1d95a0d41"
  },
  {
    "element-6066-11e4-a52e-4f735466cecf": "80eb7286-9556-4a83-9cc5-43d5311b6723"
  },
  {
    "element-6066-11e4-a52e-4f735466cecf": "7519da41-fd13-4aa0-9378-8ed2912ed3d0"
  },
  {
    "element-6066-11e4-a52e-4f735466cecf": "c466b318-61f1-461b-acdb-56113e326122"
  },
  {
    "element-6066-11e4-a52e-4f735466cecf": "d418e7ff-517b-40ff-8459-5634cf16b911"
  },
  {
    "element-6066-11e4-a52e-4f735466cecf": "42c75954-3858-4c3e-b3e1-8db555e966ed"
  }
]