"Status","Start Time","Stop Time","Duration in ms","Parent Suite","Suite","Sub Suite","Test Class","Test Method","Name","Description"
"broken","Wed Aug 17 10:16:57 EEST 2022","Wed Aug 17 10:17:00 EEST 2022","3292","","13.Usability Testing","","13.Usability Testing","13.1 Broken links 404","13.1 Broken links 404",""
"broken","Wed Aug 17 10:16:27 EEST 2022","Wed Aug 17 10:16:52 EEST 2022","25716","","1.Content","","1.Content","1.10 Form filling Contact Us","1.10 Form filling Contact Us",""
"failed","Wed Aug 17 10:15:25 EEST 2022","Wed Aug 17 10:15:50 EEST 2022","25654","","1.Content","","1.Content","1.5 Checking the link and the inscription Dallas Web Design on the main page","1.5 Checking the link and the inscription Dallas Web Design on the main page",""
"failed","Wed Aug 17 10:17:38 EEST 2022","Wed Aug 17 10:18:04 EEST 2022","26366","","9.Cache, cookies and sessions","","9.Cache, cookies and sessions","9.1 Checking button ""Accept-cookie"" ","9.1 Checking button ""Accept-cookie"" ",""
"passed","Wed Aug 17 10:14:58 EEST 2022","Wed Aug 17 10:14:59 EEST 2022","307","","1.Content","","1.Content","1.2 Availability Privacy Policy","1.2 Availability Privacy Policy",""
"passed","Wed Aug 17 10:17:19 EEST 2022","Wed Aug 17 10:17:35 EEST 2022","16076","","16.Performance Testing","","16.Performance Testing","16.1 Lighthouse Performance score","16.1 Lighthouse Performance score",""
"passed","Wed Aug 17 10:15:50 EEST 2022","Wed Aug 17 10:16:04 EEST 2022","14225","","1.Content","","1.Content","1.6 Find the alt="""" attribute of an image in Site","1.6 Find the alt="""" attribute of an image in Site",""
"passed","Wed Aug 17 10:14:57 EEST 2022","Wed Aug 17 10:14:58 EEST 2022","1066","","1.Content","","1.Content","1.1 Availability Site Map","1.1 Availability Site Map",""
"passed","Wed Aug 17 10:17:00 EEST 2022","Wed Aug 17 10:17:16 EEST 2022","15944","","13.Usability Testing","","13.Usability Testing","13.2 Check click logo in Site","13.2 Check click logo in Site",""
"passed","Wed Aug 17 10:16:26 EEST 2022","Wed Aug 17 10:16:27 EEST 2022","135","","1.Content","","1.Content","1.9 Availability Contact Us","1.9 Availability Contact Us",""
"failed","Wed Aug 17 10:14:59 EEST 2022","Wed Aug 17 10:15:24 EEST 2022","25644","","1.Content","","1.Content","1.3 Checking Terms & conditions","1.3 Checking Terms & conditions",""
"passed","Wed Aug 17 10:16:04 EEST 2022","Wed Aug 17 10:16:06 EEST 2022","1294","","1.Content","","1.Content","1.7 The presence in the site URL of the word ""Page"" or ""page""","1.7 The presence in the site URL of the word ""Page"" or ""page""",""
"passed","Wed Aug 17 10:16:06 EEST 2022","Wed Aug 17 10:16:26 EEST 2022","20636","","1.Content","","1.Content","1.8 Availability of h1 on the site","1.8 Availability of h1 on the site",""
"passed","Wed Aug 17 10:15:24 EEST 2022","Wed Aug 17 10:15:25 EEST 2022","360","","1.Content","","1.Content","1.4 Checking favicon","1.4 Checking favicon",""
